{
	"pageSize": 10,
	"pageCount": 2,
	"currentPageIndex": 1,
	"totalCount": 19,
	"data": [
		{
			"id": 8,
			"name": "ابن صفی",
			"bookCount": 246,
			"links": [
				{
					"href": "http://localhost:4200/api/library/1/authors/8",
					"rel": "self",
					"method": "GET"
				},
				{
					"href": "http://localhost:4200/api/library/1/books?pageNumber=8&pageSize=10&authorid=8",
					"rel": "books",
					"method": "GET"
				},
				{
					"href": "http://Inshapardaz.azureedge.net/images/authors/8/de97d0a1119640e190fe1a7476b74896.jpg",
					"rel": "image",
					"method": "GET",
					"accept": "image/jpeg"
				}
			]
		},
		{
			"id": 18,
			"name": "اختر رضوی",
			"bookCount": 10,
			"links": [
				{
					"href": "http://localhost:4200/api/library/1/authors/18",
					"rel": "self",
					"method": "GET"
				},
				{
					"href": "http://localhost:4200/api/library/1/books?pageNumber=18&pageSize=10&authorid=18",
					"rel": "books",
					"method": "GET"
				}
			]
		},
		{
			"id": 20,
			"name": "اشتیاق احمد",
			"bookCount": 707,
			"links": [
				{
					"href": "http://localhost:4200/api/library/1/authors/20",
					"rel": "self",
					"method": "GET"
				},
				{
					"href": "http://localhost:4200/api/library/1/books?pageNumber=20&pageSize=10&authorid=20",
					"rel": "books",
					"method": "GET"
				},
				{
					"href": "http://Inshapardaz.azureedge.net/images/authors/20/e7e47e2c007640349ca6fb95f8c7c801.jpg",
					"rel": "image",
					"method": "GET",
					"accept": "image/jpeg"
				}
			]
		},
		{
			"id": 4,
			"name": "اشفاق احمد",
			"bookCount": 23,
			"links": [
				{
					"href": "http://localhost:4200/api/library/1/authors/4",
					"rel": "self",
					"method": "GET"
				},
				{
					"href": "http://localhost:4200/api/library/1/books?pageNumber=4&pageSize=10&authorid=4",
					"rel": "books",
					"method": "GET"
				},
				{
					"href": "http://Inshapardaz.azureedge.net/images/authors/4/462599b090114dacbaf11b6b6dba3d35.jpg",
					"rel": "image",
					"method": "GET",
					"accept": "image/jpeg"
				}
			]
		},
		{
			"id": 5,
			"name": "بانو قدسیہ",
			"bookCount": 25,
			"links": [
				{
					"href": "http://localhost:4200/api/library/1/authors/5",
					"rel": "self",
					"method": "GET"
				},
				{
					"href": "http://localhost:4200/api/library/1/books?pageNumber=5&pageSize=10&authorid=5",
					"rel": "books",
					"method": "GET"
				},
				{
					"href": "http://Inshapardaz.azureedge.net/images/authors/5/04d84735ade14709990d19ca475f2308.jpg",
					"rel": "image",
					"method": "GET",
					"accept": "image/jpeg"
				}
			]
		},
		{
			"id": 11,
			"name": "پطرس بخاری",
			"bookCount": 7,
			"links": [
				{
					"href": "http://localhost:4200/api/library/1/authors/11",
					"rel": "self",
					"method": "GET"
				},
				{
					"href": "http://localhost:4200/api/library/1/books?pageNumber=11&pageSize=10&authorid=11",
					"rel": "books",
					"method": "GET"
				},
				{
					"href": "http://Inshapardaz.azureedge.net/images/authors/11/f26c2626837b478d92ef30d955a7a386.jpg",
					"rel": "image",
					"method": "GET",
					"accept": "image/jpeg"
				}
			]
		},
		{
			"id": 10,
			"name": "سعادت حسن منٹو",
			"bookCount": 114,
			"links": [
				{
					"href": "http://localhost:4200/api/library/1/authors/10",
					"rel": "self",
					"method": "GET"
				},
				{
					"href": "http://localhost:4200/api/library/1/books?pageNumber=10&pageSize=10&authorid=10",
					"rel": "books",
					"method": "GET"
				},
				{
					"href": "http://Inshapardaz.azureedge.net/images/authors/10/520becb6f1a244458b196f92fd4cd803.jpg",
					"rel": "image",
					"method": "GET",
					"accept": "image/jpeg"
				}
			]
		},
		{
			"id": 3,
			"name": "شفیق الرحمن",
			"bookCount": 11,
			"links": [
				{
					"href": "http://localhost:4200/api/library/1/authors/3",
					"rel": "self",
					"method": "GET"
				},
				{
					"href": "http://localhost:4200/api/library/1/books?pageNumber=3&pageSize=10&authorid=3",
					"rel": "books",
					"method": "GET"
				},
				{
					"href": "http://Inshapardaz.azureedge.net/images/authors/3/535009766fed4f7f95fa61d7b3288765.jpg",
					"rel": "image",
					"method": "GET",
					"accept": "image/jpeg"
				}
			]
		},
		{
			"id": 21,
			"name": "عبدالحلیم شرر",
			"bookCount": 116,
			"links": [
				{
					"href": "http://localhost:4200/api/library/1/authors/21",
					"rel": "self",
					"method": "GET"
				},
				{
					"href": "http://localhost:4200/api/library/1/books?pageNumber=21&pageSize=10&authorid=21",
					"rel": "books",
					"method": "GET"
				},
				{
					"href": "http://Inshapardaz.azureedge.net/images/authors/21/17c9aa92c5784e5ba8aca99b9775a195.jpg",
					"rel": "image",
					"method": "GET",
					"accept": "image/jpeg"
				}
			]
		},
		{
			"id": 9,
			"name": "قدرت اللہ شہاب",
			"bookCount": 7,
			"links": [
				{
					"href": "http://localhost:4200/api/library/1/authors/9",
					"rel": "self",
					"method": "GET"
				},
				{
					"href": "http://localhost:4200/api/library/1/books?pageNumber=9&pageSize=10&authorid=9",
					"rel": "books",
					"method": "GET"
				},
				{
					"href": "http://Inshapardaz.azureedge.net/images/authors/9/208e7dd6d5fc46919e8641f6fcd9c1a5.jpg",
					"rel": "image",
					"method": "GET",
					"accept": "image/jpeg"
				}
			]
		}
	],
	"links": [
		{
			"href": "http://localhost:4200/api/library/1/authors?pageNumber=1&pageSize=10",
			"rel": "self",
			"method": "GET"
		},
		{
			"href": "http://localhost:4200/api/library/1/authors?pageNumber=2&pageSize=10",
			"rel": "next",
			"method": "GET"
		}
	]
}
