{
	"pageSize": 10,
	"pageCount": 179,
	"currentPageIndex": 1,
	"totalCount": 1783,
	"data": [
		{
			"id": 832,
			"title": " اردو کی آخری کتاب",
			"description": "",
			"categories": [
				{
					"id": 1,
					"name": "طنزومزاح",
					"bookCount": 0,
					"links": [
						{
							"href": "http://localhost:4200/api/library/1/categories/1",
							"rel": "self",
							"method": "GET"
						},
						{
							"href": "http://localhost:4200/api/library/1/books?pageNumber=1&pageSize=10&categoryid=1",
							"rel": "books",
							"method": "GET"
						}
					]
				}
			],
			"contents": null,
			"language": 2,
			"isPublic": true,
			"authorId": 7,
			"authorName": "ابن انشا",
			"seriesId": null,
			"seriesName": null,
			"seriesIndex": null,
			"dateAdded": "0001-01-01T00:00:00",
			"dateUpdated": "0001-01-01T00:00:00",
			"yearPublished": 1971,
			"copyrights": 0,
			"status": 0,
			"isPublished": false,
			"links": [
				{
					"href": "http://localhost:4200/api/library/1/books/832",
					"rel": "self",
					"method": "GET"
				},
				{
					"href": "http://localhost:4200/api/library/1/authors/7",
					"rel": "author",
					"method": "GET"
				},
				{
					"href": "http://localhost:4200/api/library/1/books/832/chapters",
					"rel": "chapters",
					"method": "GET"
				},
				{
					"href": "https://Inshapardaz.azureedge.net/images/books/832/e8a4120b35fa4205927e5587f4e802db.png",
					"rel": "image",
					"method": "GET",
					"accept": "image/jpeg"
				}
			]
		},
		{
			"id": 705,
			"title": " جنگل میں چیخ",
			"description": "مکتبہ باغ و بہار\r\n1979",
			"categories": [
				{
					"id": 4,
					"name": "بچوں کا ادب",
					"bookCount": 0,
					"links": [
						{
							"href": "http://localhost:4200/api/library/1/categories/4",
							"rel": "self",
							"method": "GET"
						},
						{
							"href": "http://localhost:4200/api/library/1/books?pageNumber=1&pageSize=10&categoryid=4",
							"rel": "books",
							"method": "GET"
						}
					]
				},
				{
					"id": 14,
					"name": "جاسوسی کہانیاں",
					"bookCount": 0,
					"links": [
						{
							"href": "http://localhost:4200/api/library/1/categories/14",
							"rel": "self",
							"method": "GET"
						},
						{
							"href": "http://localhost:4200/api/library/1/books?pageNumber=1&pageSize=10&categoryid=14",
							"rel": "books",
							"method": "GET"
						}
					]
				}
			],
			"contents": null,
			"language": 2,
			"isPublic": true,
			"authorId": 20,
			"authorName": "اشتیاق احمد",
			"seriesId": 5,
			"seriesName": "انسپکٹر کامران مرزا",
			"seriesIndex": 6,
			"dateAdded": "0001-01-01T00:00:00",
			"dateUpdated": "0001-01-01T00:00:00",
			"yearPublished": 1979,
			"copyrights": 0,
			"status": 0,
			"isPublished": false,
			"links": [
				{
					"href": "http://localhost:4200/api/library/1/books/705",
					"rel": "self",
					"method": "GET"
				},
				{
					"href": "http://localhost:4200/api/library/1/authors/20",
					"rel": "author",
					"method": "GET"
				},
				{
					"href": "http://localhost:4200/api/library/1/books/705/chapters",
					"rel": "chapters",
					"method": "GET"
				},
				{
					"href": "http://localhost:4200/api/library/1/series/5",
					"rel": "series",
					"method": "GET"
				},
				{
					"href": "https://Inshapardaz.azureedge.net/images/books/705/4b601042aa904007879e6a83c6590496.jpg",
					"rel": "image",
					"method": "GET",
					"accept": "image/jpeg"
				}
			]
		},
		{
			"id": 840,
			"title": " خاک اور خون ",
			"description": "",
			"categories": [
				{
					"id": 2,
					"name": "ناول",
					"bookCount": 0,
					"links": [
						{
							"href": "http://localhost:4200/api/library/1/categories/2",
							"rel": "self",
							"method": "GET"
						},
						{
							"href": "http://localhost:4200/api/library/1/books?pageNumber=1&pageSize=10&categoryid=2",
							"rel": "books",
							"method": "GET"
						}
					]
				}
			],
			"contents": null,
			"language": 2,
			"isPublic": true,
			"authorId": 16,
			"authorName": "نسیم حجازی",
			"seriesId": null,
			"seriesName": null,
			"seriesIndex": null,
			"dateAdded": "0001-01-01T00:00:00",
			"dateUpdated": "0001-01-01T00:00:00",
			"yearPublished": 2019,
			"copyrights": 0,
			"status": 0,
			"isPublished": false,
			"links": [
				{
					"href": "http://localhost:4200/api/library/1/books/840",
					"rel": "self",
					"method": "GET"
				},
				{
					"href": "http://localhost:4200/api/library/1/authors/16",
					"rel": "author",
					"method": "GET"
				},
				{
					"href": "http://localhost:4200/api/library/1/books/840/chapters",
					"rel": "chapters",
					"method": "GET"
				},
				{
					"href": "https://Inshapardaz.azureedge.net/images/books/840/433b4c0e49c54e1b8e6975743b3c47b2.jpg",
					"rel": "image",
					"method": "GET",
					"accept": "image/jpeg"
				}
			]
		},
		{
			"id": 826,
			"title": " دنیا گول ہے",
			"description": "",
			"categories": [
				{
					"id": 16,
					"name": "سفرنامہ",
					"bookCount": 0,
					"links": [
						{
							"href": "http://localhost:4200/api/library/1/categories/16",
							"rel": "self",
							"method": "GET"
						},
						{
							"href": "http://localhost:4200/api/library/1/books?pageNumber=1&pageSize=10&categoryid=16",
							"rel": "books",
							"method": "GET"
						}
					]
				}
			],
			"contents": null,
			"language": 2,
			"isPublic": true,
			"authorId": 7,
			"authorName": "ابن انشا",
			"seriesId": null,
			"seriesName": null,
			"seriesIndex": null,
			"dateAdded": "0001-01-01T00:00:00",
			"dateUpdated": "0001-01-01T00:00:00",
			"yearPublished": 2019,
			"copyrights": 0,
			"status": 0,
			"isPublished": false,
			"links": [
				{
					"href": "http://localhost:4200/api/library/1/books/826",
					"rel": "self",
					"method": "GET"
				},
				{
					"href": "http://localhost:4200/api/library/1/authors/7",
					"rel": "author",
					"method": "GET"
				},
				{
					"href": "http://localhost:4200/api/library/1/books/826/chapters",
					"rel": "chapters",
					"method": "GET"
				},
				{
					"href": "https://Inshapardaz.azureedge.net/images/books/826/a763c52e1ab8483e8b8d02118178f566.png",
					"rel": "image",
					"method": "GET",
					"accept": "image/jpeg"
				}
			]
		},
		{
			"id": 834,
			"title": " شہاب نامہ",
			"description": "",
			"categories": [
				{
					"id": 3,
					"name": "سوانح‌عمری",
					"bookCount": 0,
					"links": [
						{
							"href": "http://localhost:4200/api/library/1/categories/3",
							"rel": "self",
							"method": "GET"
						},
						{
							"href": "http://localhost:4200/api/library/1/books?pageNumber=1&pageSize=10&categoryid=3",
							"rel": "books",
							"method": "GET"
						}
					]
				}
			],
			"contents": null,
			"language": 2,
			"isPublic": true,
			"authorId": 9,
			"authorName": "قدرت اللہ شہاب",
			"seriesId": null,
			"seriesName": null,
			"seriesIndex": null,
			"dateAdded": "0001-01-01T00:00:00",
			"dateUpdated": "0001-01-01T00:00:00",
			"yearPublished": 2019,
			"copyrights": 0,
			"status": 0,
			"isPublished": false,
			"links": [
				{
					"href": "http://localhost:4200/api/library/1/books/834",
					"rel": "self",
					"method": "GET"
				},
				{
					"href": "http://localhost:4200/api/library/1/authors/9",
					"rel": "author",
					"method": "GET"
				},
				{
					"href": "http://localhost:4200/api/library/1/books/834/chapters",
					"rel": "chapters",
					"method": "GET"
				},
				{
					"href": "https://Inshapardaz.azureedge.net/images/books/834/23538044a3d24e57ae852e8e7f06decf.png",
					"rel": "image",
					"method": "GET",
					"accept": "image/jpeg"
				}
			]
		},
		{
			"id": 284,
			"title": " مٹیشیا کی واپسی",
			"description": "اشتیاق پبلی کیشنز\r\nجون 1988",
			"categories": [
				{
					"id": 4,
					"name": "بچوں کا ادب",
					"bookCount": 0,
					"links": [
						{
							"href": "http://localhost:4200/api/library/1/categories/4",
							"rel": "self",
							"method": "GET"
						},
						{
							"href": "http://localhost:4200/api/library/1/books?pageNumber=1&pageSize=10&categoryid=4",
							"rel": "books",
							"method": "GET"
						}
					]
				},
				{
					"id": 14,
					"name": "جاسوسی کہانیاں",
					"bookCount": 0,
					"links": [
						{
							"href": "http://localhost:4200/api/library/1/categories/14",
							"rel": "self",
							"method": "GET"
						},
						{
							"href": "http://localhost:4200/api/library/1/books?pageNumber=1&pageSize=10&categoryid=14",
							"rel": "books",
							"method": "GET"
						}
					]
				}
			],
			"contents": null,
			"language": 2,
			"isPublic": true,
			"authorId": 20,
			"authorName": "اشتیاق احمد",
			"seriesId": 4,
			"seriesName": "انسپکٹر جمشید ",
			"seriesIndex": 249,
			"dateAdded": "0001-01-01T00:00:00",
			"dateUpdated": "0001-01-01T00:00:00",
			"yearPublished": 1988,
			"copyrights": 0,
			"status": 0,
			"isPublished": false,
			"links": [
				{
					"href": "http://localhost:4200/api/library/1/books/284",
					"rel": "self",
					"method": "GET"
				},
				{
					"href": "http://localhost:4200/api/library/1/authors/20",
					"rel": "author",
					"method": "GET"
				},
				{
					"href": "http://localhost:4200/api/library/1/books/284/chapters",
					"rel": "chapters",
					"method": "GET"
				},
				{
					"href": "http://localhost:4200/api/library/1/series/4",
					"rel": "series",
					"method": "GET"
				},
				{
					"href": "https://Inshapardaz.azureedge.net/images/books/284/c06b43a4c73b454689263e9d97d4fd4f.jpg",
					"rel": "image",
					"method": "GET",
					"accept": "image/jpeg"
				}
			]
		},
		{
			"id": 829,
			"title": " نگری نگری پِھرا مسافر",
			"description": "",
			"categories": [
				{
					"id": 16,
					"name": "سفرنامہ",
					"bookCount": 0,
					"links": [
						{
							"href": "http://localhost:4200/api/library/1/categories/16",
							"rel": "self",
							"method": "GET"
						},
						{
							"href": "http://localhost:4200/api/library/1/books?pageNumber=1&pageSize=10&categoryid=16",
							"rel": "books",
							"method": "GET"
						}
					]
				}
			],
			"contents": null,
			"language": 2,
			"isPublic": true,
			"authorId": 7,
			"authorName": "ابن انشا",
			"seriesId": null,
			"seriesName": null,
			"seriesIndex": null,
			"dateAdded": "0001-01-01T00:00:00",
			"dateUpdated": "0001-01-01T00:00:00",
			"yearPublished": 2019,
			"copyrights": 0,
			"status": 0,
			"isPublished": false,
			"links": [
				{
					"href": "http://localhost:4200/api/library/1/books/829",
					"rel": "self",
					"method": "GET"
				},
				{
					"href": "http://localhost:4200/api/library/1/authors/7",
					"rel": "author",
					"method": "GET"
				},
				{
					"href": "http://localhost:4200/api/library/1/books/829/chapters",
					"rel": "chapters",
					"method": "GET"
				},
				{
					"href": "https://Inshapardaz.azureedge.net/images/books/829/70b1fa50e7f24546ae1940f62a550f52.png",
					"rel": "image",
					"method": "GET",
					"accept": "image/jpeg"
				}
			]
		},
		{
			"id": 710,
			"title": " ڈاکو کا خوف",
			"description": "مکتبہ باغ و بہار\r\n1979",
			"categories": [
				{
					"id": 4,
					"name": "بچوں کا ادب",
					"bookCount": 0,
					"links": [
						{
							"href": "http://localhost:4200/api/library/1/categories/4",
							"rel": "self",
							"method": "GET"
						},
						{
							"href": "http://localhost:4200/api/library/1/books?pageNumber=1&pageSize=10&categoryid=4",
							"rel": "books",
							"method": "GET"
						}
					]
				}
			],
			"contents": null,
			"language": 2,
			"isPublic": true,
			"authorId": 20,
			"authorName": "اشتیاق احمد",
			"seriesId": 5,
			"seriesName": "انسپکٹر کامران مرزا",
			"seriesIndex": 7,
			"dateAdded": "0001-01-01T00:00:00",
			"dateUpdated": "0001-01-01T00:00:00",
			"yearPublished": 1979,
			"copyrights": 0,
			"status": 0,
			"isPublished": false,
			"links": [
				{
					"href": "http://localhost:4200/api/library/1/books/710",
					"rel": "self",
					"method": "GET"
				},
				{
					"href": "http://localhost:4200/api/library/1/authors/20",
					"rel": "author",
					"method": "GET"
				},
				{
					"href": "http://localhost:4200/api/library/1/books/710/chapters",
					"rel": "chapters",
					"method": "GET"
				},
				{
					"href": "http://localhost:4200/api/library/1/series/5",
					"rel": "series",
					"method": "GET"
				},
				{
					"href": "https://Inshapardaz.azureedge.net/images/books/710/8ff94c35c06342e096d32f5429a25616.jpg",
					"rel": "image",
					"method": "GET",
					"accept": "image/jpeg"
				}
			]
		}
	],
	"links": [
		{
			"href": "http://localhost:4200/api/library/1/books?pageNumber=1&pageSize=10",
			"rel": "self",
			"method": "GET"
		},
		{
			"href": "http://localhost:4200/api/library/1/books?pageNumber=2&pageSize=10",
			"rel": "next",
			"method": "GET"
		}
	]
}
