{
    "pageSize": 10,
    "pageCount": 1375,
    "currentPageIndex": 1,
    "totalCount": 13742,
    "links": [
        {
            "href": "http://localhost:4200/api/authors?PageNumber=1&PageSize=10",
            "rel": "self"
        },
        {
            "href": "http://localhost:4200/api/authors?PageNumber=2&PageSize=10",
            "rel": "next"
        }
    ],
    "data": [
        {
            "id": 1,
            "name": "مشتاق احمد یوسفی",
            "bookCount": 6,
            "links": [
                {
                    "href": "http://localhost:4200/api/authors/1",
                    "rel": "self"
                },
                {
                    "href": "http://localhost:4200/api/authors/1/books",
                    "rel": "books"
                },
                {
                    "href": "http://localhost:4200/api/file/6",
                    "rel": "image"
                }
            ]
        },
        {
            "id": 2,
            "name": "کرنل محمد خان",
            "bookCount": 4,
            "links": [
                {
                    "href": "http://localhost:4200/api/authors/2",
                    "rel": "self"
                },
                {
                    "href": "http://localhost:4200/api/authors/2/books",
                    "rel": "books"
                },
                {
                    "href": "http://localhost:4200/api/file/7",
                    "rel": "image"
                }
            ]
        },
        {
            "id": 3,
            "name": "شفیق الرحمن",
            "bookCount": 11,
            "links": [
                {
                    "href": "http://localhost:4200/api/authors/3",
                    "rel": "self"
                },
                {
                    "href": "http://localhost:4200/api/authors/3/books",
                    "rel": "books"
                },
                {
                    "href": "http://localhost:4200/api/file/8",
                    "rel": "image"
                }
            ]
        },
        {
            "id": 4,
            "name": "اشفاق احمد",
            "bookCount": 4,
            "links": [
                {
                    "href": "http://localhost:4200/api/authors/4",
                    "rel": "self"
                },
                {
                    "href": "http://localhost:4200/api/authors/4/books",
                    "rel": "books"
                },
                {
                    "href": "http://localhost:4200/api/file/9",
                    "rel": "image"
                }
            ]
        },
        {
            "id": 5,
            "name": "بانو قدسیہ",
            "bookCount": 12,
            "links": [
                {
                    "href": "http://localhost:4200/api/authors/5",
                    "rel": "self"
                },
                {
                    "href": "http://localhost:4200/api/authors/5/books",
                    "rel": "books"
                },
                {
                    "href": "http://localhost:4200/api/file/10",
                    "rel": "image"
                }
            ]
        },
        {
            "id": 6,
            "name": "مستنصر حسین تارڑ",
            "bookCount": 0,
            "links": [
                {
                    "href": "http://localhost:4200/api/authors/6",
                    "rel": "self"
                },
                {
                    "href": "http://localhost:4200/api/authors/6/books",
                    "rel": "books"
                },
                {
                    "href": "http://localhost:4200/api/file/11",
                    "rel": "image"
                }
            ]
        },
        {
            "id": 7,
            "name": "ابن انشا",
            "bookCount": 9,
            "links": [
                {
                    "href": "http://localhost:4200/api/authors/7",
                    "rel": "self"
                },
                {
                    "href": "http://localhost:4200/api/authors/7/books",
                    "rel": "books"
                },
                {
                    "href": "http://localhost:4200/api/file/12",
                    "rel": "image"
                }
            ]
        },
        {
            "id": 8,
            "name": "ابن صفی",
            "bookCount": 246,
            "links": [
                {
                    "href": "http://localhost:4200/api/authors/8",
                    "rel": "self"
                },
                {
                    "href": "http://localhost:4200/api/authors/8/books",
                    "rel": "books"
                },
                {
                    "href": "http://localhost:4200/api/file/13",
                    "rel": "image"
                }
            ]
        },
        {
            "id": 9,
            "name": "قدرت اللہ شہاب",
            "bookCount": 6,
            "links": [
                {
                    "href": "http://localhost:4200/api/authors/9",
                    "rel": "self"
                },
                {
                    "href": "http://localhost:4200/api/authors/9/books",
                    "rel": "books"
                },
                {
                    "href": "http://localhost:4200/api/file/14",
                    "rel": "image"
                }
            ]
        },
        {
            "id": 10,
            "name": "سعادت حسن منٹو",
            "bookCount": 27,
            "links": [
                {
                    "href": "http://localhost:4200/api/authors/10",
                    "rel": "self"
                },
                {
                    "href": "http://localhost:4200/api/authors/10/books",
                    "rel": "books"
                },
                {
                    "href": "http://localhost:4200/api/file/15",
                    "rel": "image"
                }
            ]
        }
    ]
}
